MODULE Sample; (* in Modula-2 *)

(* This is a comment *)

(* This is a comment ...
   ... spanning more than one line *)

CONST
  sqString = 'this is a string within "a string" ...';
  dqString = "this is a string within 'a string' ...";
  
END Sample.